LabControle/Experimento 1/Medições/tempo de estabilização 3 5_.csv

Record Length,2500,Points,-499.999965541E-6,24.00000021E-3,,Record Length,2500,Points,-499.999965541E-6,8.000000380E-3,
Sample Interval,2.0000000E-6,s,-497.999950312E-6,16.0000008E-3,,Sample Interval,2.0000000E-6,s,-497.999950312E-6,16.0000008E-3,
Trigger Point,249.99998340,Samples,-495.999993291E-6,24.00000021E-3,,Trigger Point,249.99998340,Samples,-495.999993291E-6,8.000000380E-3,
,,,-493.999978062E-6,16.0000008E-3,,,,,-493.999978062E-6,0.0,
,,,-491.999962833E-6,24.00000021E-3,,,,,-491.999962833E-6,16.0000008E-3,
,,,-489.999947604E-6,16.0000008E-3,,,,,-489.999947604E-6,0.0,
Source,CH1,,-487.999961479E-6,16.0000008E-3,,Source,CH2,,-487.999961479E-6,8.000000380E-3,
Vertical Units,Volts,,-485.999975353E-6,16.0000008E-3,,Vertical Units,Volts,,-485.999975353E-6,8.000000380E-3,
Vertical Scale,200.00000950E-3,,-483.999960124E-6,24.00000021E-3,,Vertical Scale,200.00000950E-3,,-483.999960124E-6,16.0000008E-3,
Vertical Offset,0,,-481.999973999E-6,16.0000008E-3,,Vertical Offset,0,,-481.999973999E-6,16.0000008E-3,
Horizontal Units,s,,-479.999958770E-6,16.0000008E-3,,Horizontal Units,s,,-479.999958770E-6,8.000000380E-3,
Horizontal Scale,499.999998738E-6,,-477.999972645E-6,16.0000008E-3,,Horizontal Scale,499.999998738E-6,,-477.999972645E-6,16.0000008E-3,
Pt Fmt,Y,,-475.999957416E-6,0.0,,Pt Fmt,Y,,-475.999957416E-6,0.0,
Yzero,-3.08000000,,-473.999971291E-6,24.00000021E-3,,Yzero,-3.08000000,,-473.999971291E-6,8.000000380E-3,
Probe Atten,10.0000000,,-471.999956062E-6,16.0000008E-3,,Probe Atten,10.0000000,,-471.999956062E-6,8.000000380E-3,
,,,-469.999969937E-6,16.0000008E-3,,,,,-469.999969937E-6,16.0000008E-3,
Note,TBS 1102 - 15:28:02   02/04/2019,,-467.999954708E-6,16.0000008E-3,,Note,TBS 1102 - 15:28:02   02/04/2019,,-467.999954708E-6,0.0,
,,,-465.999968583E-6,16.0000008E-3,,,,,-465.999968583E-6,0.0,
,,,-463.999953354E-6,8.000000380E-3,,,,,-463.999953354E-6,8.000000380E-3,
,,,-461.999967229E-6,24.00000021E-3,,,,,-461.999967229E-6,8.000000380E-3,
,,,-459.999952000E-6,16.0000008E-3,,,,,-459.999952000E-6,0.0,
,,,-457.999965874E-6,32.00000152E-3,,,,,-457.999965874E-6,16.0000008E-3,
,,,-455.999979749E-6,16.0000008E-3,,,,,-455.999979749E-6,16.0000008E-3,
,,,-453.999964520E-6,16.0000008E-3,,,,,-453.999964520E-6,8.000000380E-3,
,,,-451.999978395E-6,8.000000380E-3,,,,,-451.999978395E-6,16.0000008E-3,
,,,-449.999963166E-6,0.0,,,,,-449.999963166E-6,8.000000380E-3,
,,,-447.999977041E-6,8.000000380E-3,,,,,-447.999977041E-6,0.0,
,,,-445.999961812E-6,16.0000008E-3,,,,,-445.999961812E-6,8.000000380E-3,
,,,-443.999975687E-6,24.00000021E-3,,,,,-443.999975687E-6,8.000000380E-3,
,,,-441.999960458E-6,16.0000008E-3,,,,,-441.999960458E-6,16.0000008E-3,
,,,-439.999974333E-6,-8.000000380E-3,,,,,-439.999974333E-6,16.0000008E-3,
,,,-437.999959104E-6,24.00000021E-3,,,,,-437.999959104E-6,8.000000380E-3,
,,,-435.999972979E-6,8.000000380E-3,,,,,-435.999972979E-6,16.0000008E-3,
,,,-433.999957750E-6,16.0000008E-3,,,,,-433.999957750E-6,0.0,
,,,-431.999971624E-6,24.00000021E-3,,,,,-431.999971624E-6,16.0000008E-3,
,,,-429.999956395E-6,16.0000008E-3,,,,,-429.999956395E-6,16.0000008E-3,
,,,-427.999970270E-6,16.0000008E-3,,,,,-427.999970270E-6,0.0,
,,,-425.999955041E-6,16.0000008E-3,,,,,-425.999955041E-6,0.0,
,,,-423.999968916E-6,8.000000380E-3,,,,,-423.999968916E-6,8.000000380E-3,
,,,-421.999953687E-6,16.0000008E-3,,,,,-421.999953687E-6,8.000000380E-3,
,,,-419.999967562E-6,8.000000380E-3,,,,,-419.999967562E-6,0.0,
,,,-417.999952333E-6,16.0000008E-3,,,,,-417.999952333E-6,16.0000008E-3,
,,,-415.999966208E-6,32.00000152E-3,,,,,-415.999966208E-6,24.00000021E-3,
,,,-413.999980083E-6,16.0000008E-3,,,,,-413.999980083E-6,0.0,
,,,-411.999964854E-6,24.00000021E-3,,,,,-411.999964854E-6,8.000000380E-3,
,,,-409.999978729E-6,16.0000008E-3,,,,,-409.999978729E-6,8.000000380E-3,
,,,-407.999963500E-6,16.0000008E-3,,,,,-407.999963500E-6,8.000000380E-3,
,,,-405.999977374E-6,8.000000380E-3,,,,,-405.999977374E-6,8.000000380E-3,
,,,-403.999962145E-6,16.0000008E-3,,,,,-403.999962145E-6,8.000000380E-3,
,,,-401.99997602E-6,16.0000008E-3,,,,,-401.99997602E-6,0.0,
,,,-399.99996079E-6,24.00000021E-3,,,,,-399.99996079E-6,8.000000380E-3,
,,,-397.99997467E-6,24.00000021E-3,,,,,-397.99997467E-6,24.00000021E-3,
,,,-395.99995944E-6,0.0,,,,,-395.99995944E-6,16.0000008E-3,
,,,-393.99997331E-6,16.0000008E-3,,,,,-393.99997331E-6,16.0000008E-3,
,,,-391.99995808E-6,16.0000008E-3,,,,,-391.99995808E-6,8.000000380E-3,
,,,-389.99997196E-6,32.00000152E-3,,,,,-389.99997196E-6,24.00000021E-3,
,,,-387.99995673E-6,16.0000008E-3,,,,,-387.99995673E-6,8.000000380E-3,
,,,-385.99997060E-6,16.0000008E-3,,,,,-385.99997060E-6,8.000000380E-3,
,,,-383.99995537E-6,16.0000008E-3,,,,,-383.99995537E-6,8.000000380E-3,
,,,-381.99996925E-6,16.0000008E-3,,,,,-381.99996925E-6,0.0,
,,,-379.99995402E-6,24.00000021E-3,,,,,-379.99995402E-6,0.0,
,,,-377.99996790E-6,8.000000380E-3,,,,,-377.99996790E-6,16.0000008E-3,
,,,-375.99995267E-6,40.00000283E-3,,,,,-375.99995267E-6,24.00000021E-3,
,,,-373.99996654E-6,8.000000380E-3,,,,,-373.99996654E-6,0.0,
,,,-371.99998042E-6,8.000000380E-3,,,,,-371.99998042E-6,16.0000008E-3,
,,,-369.99996519E-6,0.0,,,,,-369.99996519E-6,16.0000008E-3,
,,,-367.99997906E-6,16.0000008E-3,,,,,-367.99997906E-6,8.000000380E-3,
,,,-365.99996383E-6,24.00000021E-3,,,,,-365.99996383E-6,16.0000008E-3,
,,,-363.99997771E-6,16.0000008E-3,,,,,-363.99997771E-6,8.000000380E-3,
,,,-361.99996248E-6,8.000000380E-3,,,,,-361.99996248E-6,8.000000380E-3,
,,,-359.99997635E-6,16.0000008E-3,,,,,-359.99997635E-6,8.000000380E-3,
,,,-357.99996112E-6,0.0,,,,,-357.99996112E-6,0.0,
,,,-355.99997500E-6,0.0,,,,,-355.99997500E-6,8.000000380E-3,
,,,-353.99995977E-6,24.00000021E-3,,,,,-353.99995977E-6,8.000000380E-3,
,,,-351.99997365E-6,8.000000380E-3,,,,,-351.99997365E-6,8.000000380E-3,
,,,-349.99995842E-6,16.0000008E-3,,,,,-349.99995842E-6,0.0,
,,,-347.99997229E-6,16.0000008E-3,,,,,-347.99997229E-6,16.0000008E-3,
,,,-345.99995706E-6,16.0000008E-3,,,,,-345.99995706E-6,16.0000008E-3,
,,,-343.99997094E-6,16.0000008E-3,,,,,-343.99997094E-6,0.0,
,,,-341.99995571E-6,24.00000021E-3,,,,,-341.99995571E-6,16.0000008E-3,
,,,-339.99996958E-6,16.0000008E-3,,,,,-339.99996958E-6,8.000000380E-3,
,,,-337.99995435E-6,32.00000152E-3,,,,,-337.99995435E-6,8.000000380E-3,
,,,-335.99996823E-6,16.0000008E-3,,,,,-335.99996823E-6,16.0000008E-3,
,,,-333.99995300E-6,24.00000021E-3,,,,,-333.99995300E-6,16.0000008E-3,
,,,-331.99996687E-6,24.00000021E-3,,,,,-331.99996687E-6,8.000000380E-3,
,,,-329.99995165E-6,24.00000021E-3,,,,,-329.99995165E-6,0.0,
,,,-327.99996552E-6,16.0000008E-3,,,,,-327.99996552E-6,16.0000008E-3,
,,,-325.99997940E-6,16.0000008E-3,,,,,-325.99997940E-6,0.0,
,,,-323.99996417E-6,16.0000008E-3,,,,,-323.99996417E-6,8.000000380E-3,
,,,-321.99997804E-6,24.00000021E-3,,,,,-321.99997804E-6,16.0000008E-3,
,,,-319.99996281E-6,8.000000380E-3,,,,,-319.99996281E-6,16.0000008E-3,
,,,-317.99997669E-6,8.000000380E-3,,,,,-317.99997669E-6,8.000000380E-3,
,,,-315.99996146E-6,32.00000152E-3,,,,,-315.99996146E-6,16.0000008E-3,
,,,-313.99997533E-6,16.0000008E-3,,,,,-313.99997533E-6,8.000000380E-3,
,,,-311.99996010E-6,16.0000008E-3,,,,,-311.99996010E-6,8.000000380E-3,
,,,-309.99997398E-6,24.00000021E-3,,,,,-309.99997398E-6,16.0000008E-3,
,,,-307.99995875E-6,8.000000380E-3,,,,,-307.99995875E-6,16.0000008E-3,
,,,-305.99997262E-6,16.0000008E-3,,,,,-305.99997262E-6,0.0,
,,,-303.99995740E-6,16.0000008E-3,,,,,-303.99995740E-6,8.000000380E-3,
,,,-301.99997127E-6,16.0000008E-3,,,,,-301.99997127E-6,0.0,
,,,-299.99995604E-6,8.000000380E-3,,,,,-299.99995604E-6,0.0,
,,,-297.99996992E-6,16.0000008E-3,,,,,-297.99996992E-6,8.000000380E-3,
,,,-295.99995469E-6,16.0000008E-3,,,,,-295.99995469E-6,8.000000380E-3,
,,,-293.99996856E-6,16.0000008E-3,,,,,-293.99996856E-6,0.0,
,,,-291.99995333E-6,0.0,,,,,-291.99995333E-6,0.0,
,,,-289.99996721E-6,0.0,,,,,-289.99996721E-6,0.0,
,,,-287.99995198E-6,16.0000008E-3,,,,,-287.99995198E-6,8.000000380E-3,
,,,-285.99996585E-6,16.0000008E-3,,,,,-285.99996585E-6,8.000000380E-3,
,,,-283.99997973E-6,16.0000008E-3,,,,,-283.99997973E-6,16.0000008E-3,
,,,-281.99996450E-6,24.00000021E-3,,,,,-281.99996450E-6,16.0000008E-3,
,,,-279.99997837E-6,8.000000380E-3,,,,,-279.99997837E-6,-8.000000380E-3,
,,,-277.99996315E-6,16.0000008E-3,,,,,-277.99996315E-6,8.000000380E-3,
,,,-275.99997702E-6,16.0000008E-3,,,,,-275.99997702E-6,8.000000380E-3,
,,,-273.99996179E-6,8.000000380E-3,,,,,-273.99996179E-6,16.0000008E-3,
,,,-271.99997567E-6,16.0000008E-3,,,,,-271.99997567E-6,0.0,
,,,-269.99996044E-6,24.00000021E-3,,,,,-269.99996044E-6,8.000000380E-3,
,,,-267.99997431E-6,32.00000152E-3,,,,,-267.99997431E-6,16.0000008E-3,
,,,-265.99995908E-6,16.0000008E-3,,,,,-265.99995908E-6,8.000000380E-3,
,,,-263.99997296E-6,8.000000380E-3,,,,,-263.99997296E-6,0.0,
,,,-261.99995773E-6,32.00000152E-3,,,,,-261.99995773E-6,16.0000008E-3,
,,,-259.99997160E-6,24.00000021E-3,,,,,-259.99997160E-6,8.000000380E-3,
,,,-257.99995637E-6,16.0000008E-3,,,,,-257.99995637E-6,8.000000380E-3,
,,,-255.99997025E-6,0.0,,,,,-255.99997025E-6,8.000000380E-3,
,,,-253.99995502E-6,24.00000021E-3,,,,,-253.99995502E-6,8.000000380E-3,
,,,-251.99996890E-6,40.00000283E-3,,,,,-251.99996890E-6,8.000000380E-3,
,,,-249.99995367E-6,32.00000152E-3,,,,,-249.99995367E-6,8.000000380E-3,
,,,-247.99996754E-6,24.00000021E-3,,,,,-247.99996754E-6,0.0,
,,,-245.99995231E-6,16.0000008E-3,,,,,-245.99995231E-6,16.0000008E-3,
,,,-243.99996619E-6,16.0000008E-3,,,,,-243.99996619E-6,8.000000380E-3,
,,,-241.99996551E-6,32.00000152E-3,,,,,-241.99996551E-6,8.000000380E-3,
,,,-239.99996483E-6,8.000000380E-3,,,,,-239.99996483E-6,8.000000380E-3,
,,,-237.99996416E-6,16.0000008E-3,,,,,-237.99996416E-6,8.000000380E-3,
,,,-235.99996348E-6,16.0000008E-3,,,,,-235.99996348E-6,8.000000380E-3,
,,,-233.99996280E-6,8.000000380E-3,,,,,-233.99996280E-6,0.0,
,,,-231.99996212E-6,8.000000380E-3,,,,,-231.99996212E-6,0.0,
,,,-229.99996145E-6,8.000000380E-3,,,,,-229.99996145E-6,8.000000380E-3,
,,,-227.99996077E-6,8.000000380E-3,,,,,-227.99996077E-6,8.000000380E-3,
,,,-225.99996009E-6,16.0000008E-3,,,,,-225.99996009E-6,8.000000380E-3,
,,,-223.99995942E-6,0.0,,,,,-223.99995942E-6,8.000000380E-3,
,,,-221.99997329E-6,24.00000021E-3,,,,,-221.99997329E-6,16.0000008E-3,
,,,-219.99997261E-6,24.00000021E-3,,,,,-219.99997261E-6,8.000000380E-3,
,,,-217.99997194E-6,16.0000008E-3,,,,,-217.99997194E-6,8.000000380E-3,
,,,-215.99997126E-6,32.00000152E-3,,,,,-215.99997126E-6,8.000000380E-3,
,,,-213.99997058E-6,16.0000008E-3,,,,,-213.99997058E-6,8.000000380E-3,
,,,-211.99996991E-6,32.00000152E-3,,,,,-211.99996991E-6,24.00000021E-3,
,,,-209.99996923E-6,0.0,,,,,-209.99996923E-6,0.0,
,,,-207.99996855E-6,40.00000283E-3,,,,,-207.99996855E-6,16.0000008E-3,
,,,-205.99996787E-6,24.00000021E-3,,,,,-205.99996787E-6,8.000000380E-3,
,,,-203.99996720E-6,16.0000008E-3,,,,,-203.99996720E-6,0.0,
,,,-201.99996652E-6,16.0000008E-3,,,,,-201.99996652E-6,16.0000008E-3,
,,,-199.99996584E-6,16.0000008E-3,,,,,-199.99996584E-6,0.0,
,,,-197.99996517E-6,8.000000380E-3,,,,,-197.99996517E-6,-8.000000380E-3,
,,,-195.99996449E-6,16.0000008E-3,,,,,-195.99996449E-6,8.000000380E-3,
,,,-193.99996381E-6,8.000000380E-3,,,,,-193.99996381E-6,16.0000008E-3,
,,,-191.99996314E-6,16.0000008E-3,,,,,-191.99996314E-6,8.000000380E-3,
,,,-189.99996246E-6,0.0,,,,,-189.99996246E-6,16.0000008E-3,
,,,-187.99996178E-6,8.000000380E-3,,,,,-187.99996178E-6,8.000000380E-3,
,,,-185.99996110E-6,8.000000380E-3,,,,,-185.99996110E-6,16.0000008E-3,
,,,-183.99996043E-6,8.000000380E-3,,,,,-183.99996043E-6,16.0000008E-3,
,,,-181.99995975E-6,16.0000008E-3,,,,,-181.99995975E-6,8.000000380E-3,
,,,-179.99997362E-6,16.0000008E-3,,,,,-179.99997362E-6,16.0000008E-3,
,,,-177.99997295E-6,16.0000008E-3,,,,,-177.99997295E-6,16.0000008E-3,
,,,-175.99997227E-6,8.000000380E-3,,,,,-175.99997227E-6,0.0,
,,,-173.99997159E-6,16.0000008E-3,,,,,-173.99997159E-6,0.0,
,,,-171.99997092E-6,32.00000152E-3,,,,,-171.99997092E-6,16.0000008E-3,
,,,-169.99997024E-6,24.00000021E-3,,,,,-169.99997024E-6,16.0000008E-3,
,,,-167.99996956E-6,24.00000021E-3,,,,,-167.99996956E-6,8.000000380E-3,
,,,-165.99996889E-6,8.000000380E-3,,,,,-165.99996889E-6,8.000000380E-3,
,,,-163.99996821E-6,8.000000380E-3,,,,,-163.99996821E-6,8.000000380E-3,
,,,-161.99996753E-6,24.00000021E-3,,,,,-161.99996753E-6,8.000000380E-3,
,,,-159.99996685E-6,0.0,,,,,-159.99996685E-6,8.000000380E-3,
,,,-157.99996618E-6,16.0000008E-3,,,,,-157.99996618E-6,8.000000380E-3,
,,,-155.99996550E-6,16.0000008E-3,,,,,-155.99996550E-6,8.000000380E-3,
,,,-153.99996482E-6,16.0000008E-3,,,,,-153.99996482E-6,8.000000380E-3,
,,,-151.99996415E-6,16.0000008E-3,,,,,-151.99996415E-6,0.0,
,,,-149.99996347E-6,8.000000380E-3,,,,,-149.99996347E-6,8.000000380E-3,
,,,-147.9999628E-6,8.000000380E-3,,,,,-147.9999628E-6,16.0000008E-3,
,,,-145.9999621E-6,8.000000380E-3,,,,,-145.9999621E-6,8.000000380E-3,
,,,-143.9999614E-6,16.0000008E-3,,,,,-143.9999614E-6,16.0000008E-3,
,,,-141.9999608E-6,8.000000380E-3,,,,,-141.9999608E-6,0.0,
,,,-139.9999601E-6,16.0000008E-3,,,,,-139.9999601E-6,8.000000380E-3,
,,,-137.9999594E-6,24.00000021E-3,,,,,-137.9999594E-6,16.0000008E-3,
,,,-135.9999733E-6,16.0000008E-3,,,,,-135.9999733E-6,8.000000380E-3,
,,,-133.9999726E-6,16.0000008E-3,,,,,-133.9999726E-6,16.0000008E-3,
,,,-131.9999719E-6,8.000000380E-3,,,,,-131.9999719E-6,16.0000008E-3,
,,,-129.9999713E-6,0.0,,,,,-129.9999713E-6,16.0000008E-3,
,,,-127.9999706E-6,16.0000008E-3,,,,,-127.9999706E-6,16.0000008E-3,
,,,-125.9999699E-6,16.0000008E-3,,,,,-125.9999699E-6,8.000000380E-3,
,,,-123.9999692E-6,24.00000021E-3,,,,,-123.9999692E-6,0.0,
,,,-121.9999685E-6,16.0000008E-3,,,,,-121.9999685E-6,0.0,
,,,-119.9999679E-6,16.0000008E-3,,,,,-119.9999679E-6,16.0000008E-3,
,,,-117.9999672E-6,8.000000380E-3,,,,,-117.9999672E-6,0.0,
,,,-115.9999665E-6,24.00000021E-3,,,,,-115.9999665E-6,8.000000380E-3,
,,,-113.9999658E-6,16.0000008E-3,,,,,-113.9999658E-6,0.0,
,,,-111.9999652E-6,16.0000008E-3,,,,,-111.9999652E-6,16.0000008E-3,
,,,-109.9999645E-6,16.0000008E-3,,,,,-109.9999645E-6,8.000000380E-3,
,,,-107.9999638E-6,32.00000152E-3,,,,,-107.9999638E-6,8.000000380E-3,
,,,-105.9999631E-6,16.0000008E-3,,,,,-105.9999631E-6,8.000000380E-3,
,,,-103.9999697E-6,16.0000008E-3,,,,,-103.9999697E-6,16.0000008E-3,
,,,-101.9999690E-6,16.0000008E-3,,,,,-101.9999690E-6,0.0,
,,,-99.999968370E-6,16.0000008E-3,,,,,-99.999968370E-6,0.0,
,,,-97.999967693E-6,16.0000008E-3,,,,,-97.999967693E-6,8.000000380E-3,
,,,-95.999967016E-6,24.00000021E-3,,,,,-95.999967016E-6,8.000000380E-3,
,,,-93.999966339E-6,24.00000021E-3,,,,,-93.999966339E-6,8.000000380E-3,
,,,-91.999965662E-6,16.0000008E-3,,,,,-91.999965662E-6,16.0000008E-3,
,,,-89.999964985E-6,16.0000008E-3,,,,,-89.999964985E-6,16.0000008E-3,
,,,-87.999964308E-6,16.0000008E-3,,,,,-87.999964308E-6,8.000000380E-3,
,,,-85.999963630E-6,24.00000021E-3,,,,,-85.999963630E-6,16.0000008E-3,
,,,-83.999970229E-6,8.000000380E-3,,,,,-83.999970229E-6,8.000000380E-3,
,,,-81.999969552E-6,16.0000008E-3,,,,,-81.999969552E-6,8.000000380E-3,
,,,-79.999968875E-6,8.000000380E-3,,,,,-79.999968875E-6,8.000000380E-3,
,,,-77.999968198E-6,8.000000380E-3,,,,,-77.999968198E-6,16.0000008E-3,
,,,-75.999967521E-6,16.0000008E-3,,,,,-75.999967521E-6,8.000000380E-3,
,,,-73.999966844E-6,8.000000380E-3,,,,,-73.999966844E-6,8.000000380E-3,
,,,-71.999966167E-6,16.0000008E-3,,,,,-71.999966167E-6,16.0000008E-3,
,,,-69.999965490E-6,16.0000008E-3,,,,,-69.999965490E-6,8.000000380E-3,
,,,-67.999964813E-6,24.00000021E-3,,,,,-67.999964813E-6,8.000000380E-3,
,,,-65.999964136E-6,24.00000021E-3,,,,,-65.999964136E-6,8.000000380E-3,
,,,-63.999963459E-6,24.00000021E-3,,,,,-63.999963459E-6,8.000000380E-3,
,,,-61.999970058E-6,24.00000021E-3,,,,,-61.999970058E-6,16.0000008E-3,
,,,-59.999965742E-6,24.00000021E-3,,,,,-59.999965742E-6,16.0000008E-3,
,,,-57.999965065E-6,16.0000008E-3,,,,,-57.999965065E-6,0.0,
,,,-55.999968026E-6,32.00000152E-3,,,,,-55.999968026E-6,8.000000380E-3,
,,,-53.99996735E-6,24.00000021E-3,,,,,-53.99996735E-6,24.00000021E-3,
,,,-51.99996667E-6,16.0000008E-3,,,,,-51.99996667E-6,16.0000008E-3,
,,,-49.99996600E-6,16.0000008E-3,,,,,-49.99996600E-6,8.000000380E-3,
,,,-47.99996532E-6,16.0000008E-3,,,,,-47.99996532E-6,0.0,
,,,-45.99996828E-6,24.00000021E-3,,,,,-45.99996828E-6,8.000000380E-3,
,,,-43.99996760E-6,8.000000380E-3,,,,,-43.99996760E-6,8.000000380E-3,
,,,-41.99996692E-6,24.00000021E-3,,,,,-41.99996692E-6,0.0,
,,,-39.99996625E-6,8.000000380E-3,,,,,-39.99996625E-6,0.0,
,,,-37.99996557E-6,24.00000021E-3,,,,,-37.99996557E-6,0.0,
,,,-35.99996853E-6,24.00000021E-3,,,,,-35.99996853E-6,0.0,
,,,-33.99996785E-6,24.00000021E-3,,,,,-33.99996785E-6,0.0,
,,,-31.99996718E-6,0.0,,,,,-31.99996718E-6,0.0,
,,,-29.99996650E-6,16.0000008E-3,,,,,-29.99996650E-6,0.0,
,,,-27.99996582E-6,24.00000021E-3,,,,,-27.99996582E-6,8.000000380E-3,
,,,-25.99996697E-6,24.00000021E-3,,,,,-25.99996697E-6,16.0000008E-3,
,,,-23.99996629E-6,16.0000008E-3,,,,,-23.99996629E-6,8.000000380E-3,
,,,-21.99996743E-6,0.0,,,,,-21.99996743E-6,8.000000380E-3,
,,,-19.9999668E-6,16.0000008E-3,,,,,-19.9999668E-6,0.0,
,,,-17.9999661E-6,16.0000008E-3,,,,,-17.9999661E-6,16.0000008E-3,
,,,-15.9999672E-6,8.000000380E-3,,,,,-15.9999672E-6,-8.000000380E-3,
,,,-13.9999665E-6,8.000000380E-3,,,,,-13.9999665E-6,8.000000380E-3,
,,,-11.9999668E-6,16.0000008E-3,,,,,-11.9999668E-6,8.000000380E-3,
,,,-9.999967006E-6,16.0000008E-3,,,,,-9.999967006E-6,0.0,
,,,-7.999966328E-6,16.0000008E-3,,,,,-7.999966328E-6,16.0000008E-3,
,,,-5.99996656E-6,16.0000008E-3,,,,,-5.99996656E-6,16.0000008E-3,
,,,-3.99996679E-6,24.00000021E-3,,,,,-3.99996679E-6,0.0,
,,,-1.9999668E-6,8.000000380E-3,,,,,-1.9999668E-6,8.000000380E-3,
,,,33.19655648E-12,16.0000008E-3,,,,,33.19655648E-12,8.000000380E-3,
,,,2.0000332E-6,24.00000021E-3,,,,,2.0000332E-6,16.0000008E-3,
,,,4.00003319E-6,0.0,,,,,4.00003319E-6,8.000000380E-3,
,,,6.00003295E-6,952.000021935E-3,,,,,6.00003295E-6,-16.0000008E-3,
,,,8.000033631E-6,1.0160000,,,,,8.000033631E-6,16.0000008E-3,
,,,10.0000334E-6,992.000043392E-3,,,,,10.0000334E-6,8.000000380E-3,
,,,12.0000332E-6,1.0080000,,,,,12.0000332E-6,8.000000380E-3,
,,,14.0000329E-6,1.0080000,,,,,14.0000329E-6,0.0,
,,,16.0000327E-6,1.000000,,,,,16.0000327E-6,8.000000380E-3,
,,,18.0000334E-6,1.0080000,,,,,18.0000334E-6,24.00000021E-3,
,,,20.0000322E-6,1.0080000,,,,,20.0000322E-6,8.000000380E-3,
,,,22.00003291E-6,1.0080000,,,,,22.00003291E-6,16.0000008E-3,
,,,24.00003359E-6,1.000000,,,,,24.00003359E-6,8.000000380E-3,
,,,26.00003245E-6,1.0080000,,,,,26.00003245E-6,8.000000380E-3,
,,,28.00003313E-6,984.000027180E-3,,,,,28.00003313E-6,8.000000380E-3,
,,,30.00003380E-6,1.000000,,,,,30.00003380E-6,16.0000008E-3,
,,,32.00003266E-6,1.000000,,,,,32.00003266E-6,8.000000380E-3,
,,,34.00003334E-6,1.000000,,,,,34.00003334E-6,16.0000008E-3,
,,,36.00003402E-6,992.000043392E-3,,,,,36.00003402E-6,24.00000021E-3,
,,,38.00003469E-6,1.0080000,,,,,38.00003469E-6,24.00000021E-3,
,,,40.00003173E-6,1.000000,,,,,40.00003173E-6,16.0000008E-3,
,,,42.00003241E-6,1.000000,,,,,42.00003241E-6,16.0000008E-3,
,,,44.00003309E-6,1.0160000,,,,,44.00003309E-6,32.00000152E-3,
,,,46.00003376E-6,984.000027180E-3,,,,,46.00003376E-6,24.00000021E-3,
,,,48.00003444E-6,1.0080000,,,,,48.00003444E-6,32.00000152E-3,
,,,50.00003148E-6,1.0080000,,,,,50.00003148E-6,40.00000283E-3,
,,,52.00003216E-6,984.000027180E-3,,,,,52.00003216E-6,24.00000021E-3,
,,,54.00003283E-6,1.0080000,,,,,54.00003283E-6,32.00000152E-3,
,,,56.000033510E-6,992.000043392E-3,,,,,56.000033510E-6,32.00000152E-3,
,,,58.000034187E-6,1.000000,,,,,58.000034187E-6,24.00000021E-3,
,,,60.000034864E-6,1.000000,,,,,60.000034864E-6,32.00000152E-3,
,,,62.000035541E-6,992.000043392E-3,,,,,62.000035541E-6,40.00000283E-3,
,,,64.000036218E-6,1.000000,,,,,64.000036218E-6,32.00000152E-3,
,,,66.000029619E-6,992.000043392E-3,,,,,66.000029619E-6,40.00000283E-3,
,,,68.000030296E-6,1.000000,,,,,68.000030296E-6,40.00000283E-3,
,,,70.000030973E-6,1.000000,,,,,70.000030973E-6,40.00000283E-3,
,,,72.000031651E-6,1.0080000,,,,,72.000031651E-6,48.00000042E-3,
,,,74.000032328E-6,1.0080000,,,,,74.000032328E-6,48.00000042E-3,
